%YAML 1.1
%TAG !u! tag:unity3d.com,2011:
--- !u!1 &2858880627976799064
GameObject:
  m_ObjectHideFlags: 0
  m_CorrespondingSourceObject: {fileID: 0}
  m_PrefabInstance: {fileID: 0}
  m_PrefabAsset: {fileID: 0}
  serializedVersion: 6
  m_Component:
  - component: {fileID: 7302295715291421288}
  m_Layer: 0
  m_Name: PF_GEN_STA_RacineArche_Bois_03
  m_TagString: Untagged
  m_Icon: {fileID: 0}
  m_NavMeshLayer: 0
  m_StaticEditorFlags: 4294967295
  m_IsActive: 1
--- !u!4 &7302295715291421288
Transform:
  m_ObjectHideFlags: 0
  m_CorrespondingSourceObject: {fileID: 0}
  m_PrefabInstance: {fileID: 0}
  m_PrefabAsset: {fileID: 0}
  m_GameObject: {fileID: 2858880627976799064}
  m_LocalRotation: {x: 0, y: 0, z: 0, w: 1}
  m_LocalPosition: {x: 0, y: 0, z: 0}
  m_LocalScale: {x: 1, y: 1, z: 1}
  m_Children:
  - {fileID: 5214786726972668319}
  m_Father: {fileID: 0}
  m_RootOrder: 0
  m_LocalEulerAnglesHint: {x: 0, y: 0, z: 0}
--- !u!1 &5469104365394506774
GameObject:
  m_ObjectHideFlags: 0
  m_CorrespondingSourceObject: {fileID: 0}
  m_PrefabInstance: {fileID: 0}
  m_PrefabAsset: {fileID: 0}
  serializedVersion: 6
  m_Component:
  - component: {fileID: 5214786726972668319}
  m_Layer: 0
  m_Name: Mesh
  m_TagString: Untagged
  m_Icon: {fileID: 0}
  m_NavMeshLayer: 0
  m_StaticEditorFlags: 4294967295
  m_IsActive: 1
--- !u!4 &5214786726972668319
Transform:
  m_ObjectHideFlags: 0
  m_CorrespondingSourceObject: {fileID: 0}
  m_PrefabInstance: {fileID: 0}
  m_PrefabAsset: {fileID: 0}
  m_GameObject: {fileID: 5469104365394506774}
  m_LocalRotation: {x: 0, y: 0, z: 0, w: 1}
  m_LocalPosition: {x: 0, y: 0, z: 0}
  m_LocalScale: {x: 1, y: 1, z: 1}
  m_Children:
  - {fileID: 4991026337861631812}
  m_Father: {fileID: 7302295715291421288}
  m_RootOrder: 0
  m_LocalEulerAnglesHint: {x: 0, y: 0, z: 0}
--- !u!1001 &4991026337861494212
PrefabInstance:
  m_ObjectHideFlags: 0
  serializedVersion: 2
  m_Modification:
    m_TransformParent: {fileID: 5214786726972668319}
    m_Modifications:
    - target: {fileID: 100000, guid: bf39e7e5cebcb884981c12bf650d1379, type: 3}
      propertyPath: m_Name
      value: RacineArche_Bois_03
      objectReference: {fileID: 0}
    - target: {fileID: 100000, guid: bf39e7e5cebcb884981c12bf650d1379, type: 3}
      propertyPath: m_StaticEditorFlags
      value: 4294967295
      objectReference: {fileID: 0}
    - target: {fileID: 400000, guid: bf39e7e5cebcb884981c12bf650d1379, type: 3}
      propertyPath: m_LocalPosition.x
      value: -0
      objectReference: {fileID: 0}
    - target: {fileID: 400000, guid: bf39e7e5cebcb884981c12bf650d1379, type: 3}
      propertyPath: m_LocalPosition.y
      value: 0
      objectReference: {fileID: 0}
    - target: {fileID: 400000, guid: bf39e7e5cebcb884981c12bf650d1379, type: 3}
      propertyPath: m_LocalPosition.z
      value: 0
      objectReference: {fileID: 0}
    - target: {fileID: 400000, guid: bf39e7e5cebcb884981c12bf650d1379, type: 3}
      propertyPath: m_LocalRotation.x
      value: 0.000000019807986
      objectReference: {fileID: 0}
    - target: {fileID: 400000, guid: bf39e7e5cebcb884981c12bf650d1379, type: 3}
      propertyPath: m_LocalRotation.y
      value: -0.42261824
      objectReference: {fileID: 0}
    - target: {fileID: 400000, guid: bf39e7e5cebcb884981c12bf650d1379, type: 3}
      propertyPath: m_LocalRotation.z
      value: 0.000000009236615
      objectReference: {fileID: 0}
    - target: {fileID: 400000, guid: bf39e7e5cebcb884981c12bf650d1379, type: 3}
      propertyPath: m_LocalRotation.w
      value: 0.9063078
      objectReference: {fileID: 0}
    - target: {fileID: 400000, guid: bf39e7e5cebcb884981c12bf650d1379, type: 3}
      propertyPath: m_RootOrder
      value: 0
      objectReference: {fileID: 0}
    - target: {fileID: 400000, guid: bf39e7e5cebcb884981c12bf650d1379, type: 3}
      propertyPath: m_LocalEulerAnglesHint.x
      value: 0
      objectReference: {fileID: 0}
    - target: {fileID: 400000, guid: bf39e7e5cebcb884981c12bf650d1379, type: 3}
      propertyPath: m_LocalEulerAnglesHint.y
      value: 0
      objectReference: {fileID: 0}
    - target: {fileID: 400000, guid: bf39e7e5cebcb884981c12bf650d1379, type: 3}
      propertyPath: m_LocalEulerAnglesHint.z
      value: 0
      objectReference: {fileID: 0}
    - target: {fileID: 2300000, guid: bf39e7e5cebcb884981c12bf650d1379, type: 3}
      propertyPath: m_Materials.Array.data[0]
      value: 
      objectReference: {fileID: 2100000, guid: adafb9b0091646546a37630617ee77c5, type: 2}
    m_RemovedComponents: []
  m_SourcePrefab: {fileID: 100100000, guid: bf39e7e5cebcb884981c12bf650d1379, type: 3}
--- !u!4 &4991026337861631812 stripped
Transform:
  m_CorrespondingSourceObject: {fileID: 400000, guid: bf39e7e5cebcb884981c12bf650d1379,
    type: 3}
  m_PrefabInstance: {fileID: 4991026337861494212}
  m_PrefabAsset: {fileID: 0}
