%YAML 1.1
%TAG !u! tag:unity3d.com,2011:
--- !u!1 &1502460878766938304
GameObject:
  m_ObjectHideFlags: 0
  m_CorrespondingSourceObject: {fileID: 0}
  m_PrefabInstance: {fileID: 0}
  m_PrefabAsset: {fileID: 0}
  serializedVersion: 6
  m_Component:
  - component: {fileID: 9215632253604471403}
  m_Layer: 0
  m_Name: Mesh
  m_TagString: Untagged
  m_Icon: {fileID: 0}
  m_NavMeshLayer: 0
  m_StaticEditorFlags: 4294967295
  m_IsActive: 1
--- !u!4 &9215632253604471403
Transform:
  m_ObjectHideFlags: 0
  m_CorrespondingSourceObject: {fileID: 0}
  m_PrefabInstance: {fileID: 0}
  m_PrefabAsset: {fileID: 0}
  m_GameObject: {fileID: 1502460878766938304}
  m_LocalRotation: {x: -0, y: -0, z: -0, w: 1}
  m_LocalPosition: {x: 0, y: 0, z: 0}
  m_LocalScale: {x: 1, y: 1, z: 1}
  m_Children:
  - {fileID: 1147795187892069472}
  m_Father: {fileID: 4392866876121609446}
  m_RootOrder: 0
  m_LocalEulerAnglesHint: {x: 0, y: 0, z: 0}
--- !u!1 &2773733198213401549
GameObject:
  m_ObjectHideFlags: 0
  m_CorrespondingSourceObject: {fileID: 0}
  m_PrefabInstance: {fileID: 0}
  m_PrefabAsset: {fileID: 0}
  serializedVersion: 6
  m_Component:
  - component: {fileID: 4392866876121609446}
  m_Layer: 0
  m_Name: PF_GEN_STA_PlaneGrimpante3_Vegetale_04
  m_TagString: Untagged
  m_Icon: {fileID: 0}
  m_NavMeshLayer: 0
  m_StaticEditorFlags: 4294967295
  m_IsActive: 1
--- !u!4 &4392866876121609446
Transform:
  m_ObjectHideFlags: 0
  m_CorrespondingSourceObject: {fileID: 0}
  m_PrefabInstance: {fileID: 0}
  m_PrefabAsset: {fileID: 0}
  m_GameObject: {fileID: 2773733198213401549}
  m_LocalRotation: {x: 0, y: 0, z: 0, w: 1}
  m_LocalPosition: {x: 0, y: 0, z: 0}
  m_LocalScale: {x: 1, y: 1, z: 1}
  m_Children:
  - {fileID: 9215632253604471403}
  m_Father: {fileID: 0}
  m_RootOrder: 0
  m_LocalEulerAnglesHint: {x: 0, y: 0, z: 0}
--- !u!1001 &1147795187891945184
PrefabInstance:
  m_ObjectHideFlags: 0
  serializedVersion: 2
  m_Modification:
    m_TransformParent: {fileID: 9215632253604471403}
    m_Modifications:
    - target: {fileID: 100000, guid: 833181654f42a71458cd6184398a78aa, type: 3}
      propertyPath: m_Name
      value: PlaneGrimpante3_Vegetale_04
      objectReference: {fileID: 0}
    - target: {fileID: 100000, guid: 833181654f42a71458cd6184398a78aa, type: 3}
      propertyPath: m_StaticEditorFlags
      value: 4294967295
      objectReference: {fileID: 0}
    - target: {fileID: 400000, guid: 833181654f42a71458cd6184398a78aa, type: 3}
      propertyPath: m_LocalPosition.x
      value: -0
      objectReference: {fileID: 0}
    - target: {fileID: 400000, guid: 833181654f42a71458cd6184398a78aa, type: 3}
      propertyPath: m_LocalPosition.y
      value: 0
      objectReference: {fileID: 0}
    - target: {fileID: 400000, guid: 833181654f42a71458cd6184398a78aa, type: 3}
      propertyPath: m_LocalPosition.z
      value: 0
      objectReference: {fileID: 0}
    - target: {fileID: 400000, guid: 833181654f42a71458cd6184398a78aa, type: 3}
      propertyPath: m_LocalRotation.x
      value: -0.7071068
      objectReference: {fileID: 0}
    - target: {fileID: 400000, guid: 833181654f42a71458cd6184398a78aa, type: 3}
      propertyPath: m_LocalRotation.y
      value: -0.000000061817246
      objectReference: {fileID: 0}
    - target: {fileID: 400000, guid: 833181654f42a71458cd6184398a78aa, type: 3}
      propertyPath: m_LocalRotation.z
      value: -0.000000061817246
      objectReference: {fileID: 0}
    - target: {fileID: 400000, guid: 833181654f42a71458cd6184398a78aa, type: 3}
      propertyPath: m_LocalRotation.w
      value: 0.7071068
      objectReference: {fileID: 0}
    - target: {fileID: 400000, guid: 833181654f42a71458cd6184398a78aa, type: 3}
      propertyPath: m_RootOrder
      value: 0
      objectReference: {fileID: 0}
    - target: {fileID: 400000, guid: 833181654f42a71458cd6184398a78aa, type: 3}
      propertyPath: m_LocalEulerAnglesHint.x
      value: 0
      objectReference: {fileID: 0}
    - target: {fileID: 400000, guid: 833181654f42a71458cd6184398a78aa, type: 3}
      propertyPath: m_LocalEulerAnglesHint.y
      value: 0
      objectReference: {fileID: 0}
    - target: {fileID: 400000, guid: 833181654f42a71458cd6184398a78aa, type: 3}
      propertyPath: m_LocalEulerAnglesHint.z
      value: 0
      objectReference: {fileID: 0}
    m_RemovedComponents: []
  m_SourcePrefab: {fileID: 100100000, guid: 833181654f42a71458cd6184398a78aa, type: 3}
--- !u!4 &1147795187892069472 stripped
Transform:
  m_CorrespondingSourceObject: {fileID: 400000, guid: 833181654f42a71458cd6184398a78aa,
    type: 3}
  m_PrefabInstance: {fileID: 1147795187891945184}
  m_PrefabAsset: {fileID: 0}
