%YAML 1.1
%TAG !u! tag:unity3d.com,2011:
--- !u!1 &1625814213106375702
GameObject:
  m_ObjectHideFlags: 0
  m_CorrespondingSourceObject: {fileID: 0}
  m_PrefabInstance: {fileID: 0}
  m_PrefabAsset: {fileID: 0}
  serializedVersion: 6
  m_Component:
  - component: {fileID: 8101610307344309721}
  m_Layer: 0
  m_Name: PF_GEN_STA_Temple_I_Bloc_Pattern_8x8x2_01
  m_TagString: Untagged
  m_Icon: {fileID: 0}
  m_NavMeshLayer: 0
  m_StaticEditorFlags: 4294967295
  m_IsActive: 1
--- !u!4 &8101610307344309721
Transform:
  m_ObjectHideFlags: 0
  m_CorrespondingSourceObject: {fileID: 0}
  m_PrefabInstance: {fileID: 0}
  m_PrefabAsset: {fileID: 0}
  m_GameObject: {fileID: 1625814213106375702}
  m_LocalRotation: {x: 0, y: 0, z: 0, w: 1}
  m_LocalPosition: {x: 0, y: 0, z: 0}
  m_LocalScale: {x: 1, y: 1, z: 1}
  m_Children:
  - {fileID: 4050819226979937301}
  m_Father: {fileID: 0}
  m_RootOrder: 0
  m_LocalEulerAnglesHint: {x: 0, y: 0, z: 0}
--- !u!1 &7713307479874015506
GameObject:
  m_ObjectHideFlags: 0
  m_CorrespondingSourceObject: {fileID: 0}
  m_PrefabInstance: {fileID: 0}
  m_PrefabAsset: {fileID: 0}
  serializedVersion: 6
  m_Component:
  - component: {fileID: 4050819226979937301}
  m_Layer: 0
  m_Name: Mesh
  m_TagString: Untagged
  m_Icon: {fileID: 0}
  m_NavMeshLayer: 0
  m_StaticEditorFlags: 4294967295
  m_IsActive: 1
--- !u!4 &4050819226979937301
Transform:
  m_ObjectHideFlags: 0
  m_CorrespondingSourceObject: {fileID: 0}
  m_PrefabInstance: {fileID: 0}
  m_PrefabAsset: {fileID: 0}
  m_GameObject: {fileID: 7713307479874015506}
  m_LocalRotation: {x: -0, y: -0, z: -0, w: 1}
  m_LocalPosition: {x: 0, y: 0, z: 0}
  m_LocalScale: {x: 1, y: 1, z: 1}
  m_Children:
  - {fileID: 295224399503103943}
  m_Father: {fileID: 8101610307344309721}
  m_RootOrder: 0
  m_LocalEulerAnglesHint: {x: 0, y: 0, z: 0}
--- !u!1001 &295224399503494471
PrefabInstance:
  m_ObjectHideFlags: 0
  serializedVersion: 2
  m_Modification:
    m_TransformParent: {fileID: 4050819226979937301}
    m_Modifications:
    - target: {fileID: 100000, guid: 80636a75f50719548b2d956b30de1aa8, type: 3}
      propertyPath: m_Name
      value: Temple_I_Bloc_Pattern_8x8x2_01
      objectReference: {fileID: 0}
    - target: {fileID: 400000, guid: 80636a75f50719548b2d956b30de1aa8, type: 3}
      propertyPath: m_LocalPosition.x
      value: -0
      objectReference: {fileID: 0}
    - target: {fileID: 400000, guid: 80636a75f50719548b2d956b30de1aa8, type: 3}
      propertyPath: m_LocalPosition.y
      value: 0
      objectReference: {fileID: 0}
    - target: {fileID: 400000, guid: 80636a75f50719548b2d956b30de1aa8, type: 3}
      propertyPath: m_LocalPosition.z
      value: 0
      objectReference: {fileID: 0}
    - target: {fileID: 400000, guid: 80636a75f50719548b2d956b30de1aa8, type: 3}
      propertyPath: m_LocalRotation.x
      value: -0.7071068
      objectReference: {fileID: 0}
    - target: {fileID: 400000, guid: 80636a75f50719548b2d956b30de1aa8, type: 3}
      propertyPath: m_LocalRotation.y
      value: 0
      objectReference: {fileID: 0}
    - target: {fileID: 400000, guid: 80636a75f50719548b2d956b30de1aa8, type: 3}
      propertyPath: m_LocalRotation.z
      value: -0
      objectReference: {fileID: 0}
    - target: {fileID: 400000, guid: 80636a75f50719548b2d956b30de1aa8, type: 3}
      propertyPath: m_LocalRotation.w
      value: 0.7071068
      objectReference: {fileID: 0}
    - target: {fileID: 400000, guid: 80636a75f50719548b2d956b30de1aa8, type: 3}
      propertyPath: m_RootOrder
      value: 0
      objectReference: {fileID: 0}
    - target: {fileID: 400000, guid: 80636a75f50719548b2d956b30de1aa8, type: 3}
      propertyPath: m_LocalEulerAnglesHint.x
      value: 0
      objectReference: {fileID: 0}
    - target: {fileID: 400000, guid: 80636a75f50719548b2d956b30de1aa8, type: 3}
      propertyPath: m_LocalEulerAnglesHint.y
      value: 0
      objectReference: {fileID: 0}
    - target: {fileID: 400000, guid: 80636a75f50719548b2d956b30de1aa8, type: 3}
      propertyPath: m_LocalEulerAnglesHint.z
      value: 0
      objectReference: {fileID: 0}
    - target: {fileID: 2300000, guid: 80636a75f50719548b2d956b30de1aa8, type: 3}
      propertyPath: m_Materials.Array.data[1]
      value: 
      objectReference: {fileID: 2100000, guid: 770aad3d4efeeb148930853cce8f2bb7, type: 2}
    - target: {fileID: 2300000, guid: 80636a75f50719548b2d956b30de1aa8, type: 3}
      propertyPath: m_Materials.Array.data[4]
      value: 
      objectReference: {fileID: 2100000, guid: 770aad3d4efeeb148930853cce8f2bb7, type: 2}
    - target: {fileID: 2300000, guid: 80636a75f50719548b2d956b30de1aa8, type: 3}
      propertyPath: m_Materials.Array.data[0]
      value: 
      objectReference: {fileID: 2100000, guid: 51234fcbda1b13345abf6e044029d9e3, type: 2}
    - target: {fileID: 2300000, guid: 80636a75f50719548b2d956b30de1aa8, type: 3}
      propertyPath: m_Materials.Array.data[3]
      value: 
      objectReference: {fileID: 2100000, guid: 770aad3d4efeeb148930853cce8f2bb7, type: 2}
    - target: {fileID: 2300000, guid: 80636a75f50719548b2d956b30de1aa8, type: 3}
      propertyPath: m_Materials.Array.data[2]
      value: 
      objectReference: {fileID: 2100000, guid: 51234fcbda1b13345abf6e044029d9e3, type: 2}
    m_RemovedComponents: []
  m_SourcePrefab: {fileID: 100100000, guid: 80636a75f50719548b2d956b30de1aa8, type: 3}
--- !u!4 &295224399503103943 stripped
Transform:
  m_CorrespondingSourceObject: {fileID: 400000, guid: 80636a75f50719548b2d956b30de1aa8,
    type: 3}
  m_PrefabInstance: {fileID: 295224399503494471}
  m_PrefabAsset: {fileID: 0}
